simon/SimonDatapathTest.vcd
$date
	Mon Nov 01 20:06:54 2021
$end
$version
	Icarus Verilog
$end
$timescale
	100ps
$end
$scope module SimonDatapathTest $end
$var wire 1 ! pattern_valid $end
$var wire 4 " pattern_leds [3:0] $end
$var wire 1 # pattern_eq_mem $end
$var wire 1 $ index_lt_count $end
$var reg 1 % clk $end
$var reg 1 & count_clr $end
$var reg 1 ' count_cnt $end
$var reg 1 ( disp_mem $end
$var reg 1 ) index_clr $end
$var reg 1 * index_cnt $end
$var reg 1 + level $end
$var reg 1 , load_level $end
$var reg 4 - pattern [3:0] $end
$var reg 1 . w_en $end
$var integer 32 / idx [31:0] $end
$scope module dpath $end
$var wire 1 % clk $end
$var wire 1 & count_clr $end
$var wire 1 ' count_cnt $end
$var wire 1 ( disp_mem $end
$var wire 1 ) index_clr $end
$var wire 1 * index_cnt $end
$var wire 1 + level $end
$var wire 1 , load_level $end
$var wire 4 0 pattern [3:0] $end
$var wire 1 . w_en $end
$var wire 4 1 mem_read [3:0] $end
$var reg 6 2 count [5:0] $end
$var reg 6 3 index [5:0] $end
$var reg 1 $ index_lt_count $end
$var reg 1 4 level_reg $end
$var reg 1 # pattern_eq_mem $end
$var reg 4 5 pattern_leds [3:0] $end
$var reg 1 ! pattern_valid $end
$scope module mem $end
$var wire 1 % clk $end
$var wire 6 6 r_addr [5:0] $end
$var wire 4 7 r_data [3:0] $end
$var wire 1 8 rst $end
$var wire 6 9 w_addr [5:0] $end
$var wire 4 : w_data [3:0] $end
$var wire 1 . w_en $end
$scope begin wport[0] $end
$upscope $end
$scope begin wport[1] $end
$upscope $end
$scope begin wport[2] $end
$upscope $end
$scope begin wport[3] $end
$upscope $end
$scope begin wport[4] $end
$upscope $end
$scope begin wport[5] $end
$upscope $end
$scope begin wport[6] $end
$upscope $end
$scope begin wport[7] $end
$upscope $end
$scope begin wport[8] $end
$upscope $end
$scope begin wport[9] $end
$upscope $end
$scope begin wport[10] $end
$upscope $end
$scope begin wport[11] $end
$upscope $end
$scope begin wport[12] $end
$upscope $end
$scope begin wport[13] $end
$upscope $end
$scope begin wport[14] $end
$upscope $end
$scope begin wport[15] $end
$upscope $end
$scope begin wport[16] $end
$upscope $end
$scope begin wport[17] $end
$upscope $end
$scope begin wport[18] $end
$upscope $end
$scope begin wport[19] $end
$upscope $end
$scope begin wport[20] $end
$upscope $end
$scope begin wport[21] $end
$upscope $end
$scope begin wport[22] $end
$upscope $end
$scope begin wport[23] $end
$upscope $end
$scope begin wport[24] $end
$upscope $end
$scope begin wport[25] $end
$upscope $end
$scope begin wport[26] $end
$upscope $end
$scope begin wport[27] $end
$upscope $end
$scope begin wport[28] $end
$upscope $end
$scope begin wport[29] $end
$upscope $end
$scope begin wport[30] $end
$upscope $end
$scope begin wport[31] $end
$upscope $end
$scope begin wport[32] $end
$upscope $end
$scope begin wport[33] $end
$upscope $end
$scope begin wport[34] $end
$upscope $end
$scope begin wport[35] $end
$upscope $end
$scope begin wport[36] $end
$upscope $end
$scope begin wport[37] $end
$upscope $end
$scope begin wport[38] $end
$upscope $end
$scope begin wport[39] $end
$upscope $end
$scope begin wport[40] $end
$upscope $end
$scope begin wport[41] $end
$upscope $end
$scope begin wport[42] $end
$upscope $end
$scope begin wport[43] $end
$upscope $end
$scope begin wport[44] $end
$upscope $end
$scope begin wport[45] $end
$upscope $end
$scope begin wport[46] $end
$upscope $end
$scope begin wport[47] $end
$upscope $end
$scope begin wport[48] $end
$upscope $end
$scope begin wport[49] $end
$upscope $end
$scope begin wport[50] $end
$upscope $end
$scope begin wport[51] $end
$upscope $end
$scope begin wport[52] $end
$upscope $end
$scope begin wport[53] $end
$upscope $end
$scope begin wport[54] $end
$upscope $end
$scope begin wport[55] $end
$upscope $end
$scope begin wport[56] $end
$upscope $end
$scope begin wport[57] $end
$upscope $end
$scope begin wport[58] $end
$upscope $end
$scope begin wport[59] $end
$upscope $end
$scope begin wport[60] $end
$upscope $end
$scope begin wport[61] $end
$upscope $end
$scope begin wport[62] $end
$upscope $end
$scope begin wport[63] $end
$upscope $end
$upscope $end
$upscope $end
$upscope $end
$scope module SimonDatapathTest $end
$scope module dpath $end
$scope module mem $end
$var reg 4 ; \mem[0] [3:0] $end
$upscope $end
$upscope $end
$upscope $end
$scope module SimonDatapathTest $end
$scope module dpath $end
$scope module mem $end
$var reg 4 < \mem[1] [3:0] $end
$upscope $end
$upscope $end
$upscope $end
$scope module SimonDatapathTest $end
$scope module dpath $end
$scope module mem $end
$var reg 4 = \mem[2] [3:0] $end
$upscope $end
$upscope $end
$upscope $end
$scope module SimonDatapathTest $end
$scope module dpath $end
$scope module mem $end
$var reg 4 > \mem[3] [3:0] $end
$upscope $end
$upscope $end
$upscope $end
$scope module SimonDatapathTest $end
$scope module dpath $end
$scope module mem $end
$var reg 4 ? \mem[4] [3:0] $end
$upscope $end
$upscope $end
$upscope $end
$scope module SimonDatapathTest $end
$scope module dpath $end
$scope module mem $end
$var reg 4 @ \mem[5] [3:0] $end
$upscope $end
$upscope $end
$upscope $end
$scope module SimonDatapathTest $end
$scope module dpath $end
$scope module mem $end
$var reg 4 A \mem[6] [3:0] $end
$upscope $end
$upscope $end
$upscope $end
$scope module SimonDatapathTest $end
$scope module dpath $end
$scope module mem $end
$var reg 4 B \mem[7] [3:0] $end
$upscope $end
$upscope $end
$upscope $end
$scope module SimonDatapathTest $end
$scope module dpath $end
$scope module mem $end
$var reg 4 C \mem[8] [3:0] $end
$upscope $end
$upscope $end
$upscope $end
$scope module SimonDatapathTest $end
$scope module dpath $end
$scope module mem $end
$var reg 4 D \mem[9] [3:0] $end
$upscope $end
$upscope $end
$upscope $end
$scope module SimonDatapathTest $end
$scope module dpath $end
$scope module mem $end
$var reg 4 E \mem[10] [3:0] $end
$upscope $end
$upscope $end
$upscope $end
$scope module SimonDatapathTest $end
$scope module dpath $end
$scope module mem $end
$var reg 4 F \mem[11] [3:0] $end
$upscope $end
$upscope $end
$upscope $end
$scope module SimonDatapathTest $end
$scope module dpath $end
$scope module mem $end
$var reg 4 G \mem[12] [3:0] $end
$upscope $end
$upscope $end
$upscope $end
$scope module SimonDatapathTest $end
$scope module dpath $end
$scope module mem $end
$var reg 4 H \mem[13] [3:0] $end
$upscope $end
$upscope $end
$upscope $end
$scope module SimonDatapathTest $end
$scope module dpath $end
$scope module mem $end
$var reg 4 I \mem[14] [3:0] $end
$upscope $end
$upscope $end
$upscope $end
$scope module SimonDatapathTest $end
$scope module dpath $end
$scope module mem $end
$var reg 4 J \mem[15] [3:0] $end
$upscope $end
$upscope $end
$upscope $end
$scope module SimonDatapathTest $end
$scope module dpath $end
$scope module mem $end
$var reg 4 K \mem[16] [3:0] $end
$upscope $end
$upscope $end
$upscope $end
$scope module SimonDatapathTest $end
$scope module dpath $end
$scope module mem $end
$var reg 4 L \mem[17] [3:0] $end
$upscope $end
$upscope $end
$upscope $end
$scope module SimonDatapathTest $end
$scope module dpath $end
$scope module mem $end
$var reg 4 M \mem[18] [3:0] $end
$upscope $end
$upscope $end
$upscope $end
$scope module SimonDatapathTest $end
$scope module dpath $end
$scope module mem $end
$var reg 4 N \mem[19] [3:0] $end
$upscope $end
$upscope $end
$upscope $end
$scope module SimonDatapathTest $end
$scope module dpath $end
$scope module mem $end
$var reg 4 O \mem[20] [3:0] $end
$upscope $end
$upscope $end
$upscope $end
$scope module SimonDatapathTest $end
$scope module dpath $end
$scope module mem $end
$var reg 4 P \mem[21] [3:0] $end
$upscope $end
$upscope $end
$upscope $end
$scope module SimonDatapathTest $end
$scope module dpath $end
$scope module mem $end
$var reg 4 Q \mem[22] [3:0] $end
$upscope $end
$upscope $end
$upscope $end
$scope module SimonDatapathTest $end
$scope module dpath $end
$scope module mem $end
$var reg 4 R \mem[23] [3:0] $end
$upscope $end
$upscope $end
$upscope $end
$scope module SimonDatapathTest $end
$scope module dpath $end
$scope module mem $end
$var reg 4 S \mem[24] [3:0] $end
$upscope $end
$upscope $end
$upscope $end
$scope module SimonDatapathTest $end
$scope module dpath $end
$scope module mem $end
$var reg 4 T \mem[25] [3:0] $end
$upscope $end
$upscope $end
$upscope $end
$scope module SimonDatapathTest $end
$scope module dpath $end
$scope module mem $end
$var reg 4 U \mem[26] [3:0] $end
$upscope $end
$upscope $end
$upscope $end
$scope module SimonDatapathTest $end
$scope module dpath $end
$scope module mem $end
$var reg 4 V \mem[27] [3:0] $end
$upscope $end
$upscope $end
$upscope $end
$scope module SimonDatapathTest $end
$scope module dpath $end
$scope module mem $end
$var reg 4 W \mem[28] [3:0] $end
$upscope $end
$upscope $end
$upscope $end
$scope module SimonDatapathTest $end
$scope module dpath $end
$scope module mem $end
$var reg 4 X \mem[29] [3:0] $end
$upscope $end
$upscope $end
$upscope $end
$scope module SimonDatapathTest $end
$scope module dpath $end
$scope module mem $end
$var reg 4 Y \mem[30] [3:0] $end
$upscope $end
$upscope $end
$upscope $end
$scope module SimonDatapathTest $end
$scope module dpath $end
$scope module mem $end
$var reg 4 Z \mem[31] [3:0] $end
$upscope $end
$upscope $end
$upscope $end
$scope module SimonDatapathTest $end
$scope module dpath $end
$scope module mem $end
$var reg 4 [ \mem[32] [3:0] $end
$upscope $end
$upscope $end
$upscope $end
$scope module SimonDatapathTest $end
$scope module dpath $end
$scope module mem $end
$var reg 4 \ \mem[33] [3:0] $end
$upscope $end
$upscope $end
$upscope $end
$scope module SimonDatapathTest $end
$scope module dpath $end
$scope module mem $end
$var reg 4 ] \mem[34] [3:0] $end
$upscope $end
$upscope $end
$upscope $end
$scope module SimonDatapathTest $end
$scope module dpath $end
$scope module mem $end
$var reg 4 ^ \mem[35] [3:0] $end
$upscope $end
$upscope $end
$upscope $end
$scope module SimonDatapathTest $end
$scope module dpath $end
$scope module mem $end
$var reg 4 _ \mem[36] [3:0] $end
$upscope $end
$upscope $end
$upscope $end
$scope module SimonDatapathTest $end
$scope module dpath $end
$scope module mem $end
$var reg 4 ` \mem[37] [3:0] $end
$upscope $end
$upscope $end
$upscope $end
$scope module SimonDatapathTest $end
$scope module dpath $end
$scope module mem $end
$var reg 4 a \mem[38] [3:0] $end
$upscope $end
$upscope $end
$upscope $end
$scope module SimonDatapathTest $end
$scope module dpath $end
$scope module mem $end
$var reg 4 b \mem[39] [3:0] $end
$upscope $end
$upscope $end
$upscope $end
$scope module SimonDatapathTest $end
$scope module dpath $end
$scope module mem $end
$var reg 4 c \mem[40] [3:0] $end
$upscope $end
$upscope $end
$upscope $end
$scope module SimonDatapathTest $end
$scope module dpath $end
$scope module mem $end
$var reg 4 d \mem[41] [3:0] $end
$upscope $end
$upscope $end
$upscope $end
$scope module SimonDatapathTest $end
$scope module dpath $end
$scope module mem $end
$var reg 4 e \mem[42] [3:0] $end
$upscope $end
$upscope $end
$upscope $end
$scope module SimonDatapathTest $end
$scope module dpath $end
$scope module mem $end
$var reg 4 f \mem[43] [3:0] $end
$upscope $end
$upscope $end
$upscope $end
$scope module SimonDatapathTest $end
$scope module dpath $end
$scope module mem $end
$var reg 4 g \mem[44] [3:0] $end
$upscope $end
$upscope $end
$upscope $end
$scope module SimonDatapathTest $end
$scope module dpath $end
$scope module mem $end
$var reg 4 h \mem[45] [3:0] $end
$upscope $end
$upscope $end
$upscope $end
$scope module SimonDatapathTest $end
$scope module dpath $end
$scope module mem $end
$var reg 4 i \mem[46] [3:0] $end
$upscope $end
$upscope $end
$upscope $end
$scope module SimonDatapathTest $end
$scope module dpath $end
$scope module mem $end
$var reg 4 j \mem[47] [3:0] $end
$upscope $end
$upscope $end
$upscope $end
$scope module SimonDatapathTest $end
$scope module dpath $end
$scope module mem $end
$var reg 4 k \mem[48] [3:0] $end
$upscope $end
$upscope $end
$upscope $end
$scope module SimonDatapathTest $end
$scope module dpath $end
$scope module mem $end
$var reg 4 l \mem[49] [3:0] $end
$upscope $end
$upscope $end
$upscope $end
$scope module SimonDatapathTest $end
$scope module dpath $end
$scope module mem $end
$var reg 4 m \mem[50] [3:0] $end
$upscope $end
$upscope $end
$upscope $end
$scope module SimonDatapathTest $end
$scope module dpath $end
$scope module mem $end
$var reg 4 n \mem[51] [3:0] $end
$upscope $end
$upscope $end
$upscope $end
$scope module SimonDatapathTest $end
$scope module dpath $end
$scope module mem $end
$var reg 4 o \mem[52] [3:0] $end
$upscope $end
$upscope $end
$upscope $end
$scope module SimonDatapathTest $end
$scope module dpath $end
$scope module mem $end
$var reg 4 p \mem[53] [3:0] $end
$upscope $end
$upscope $end
$upscope $end
$scope module SimonDatapathTest $end
$scope module dpath $end
$scope module mem $end
$var reg 4 q \mem[54] [3:0] $end
$upscope $end
$upscope $end
$upscope $end
$scope module SimonDatapathTest $end
$scope module dpath $end
$scope module mem $end
$var reg 4 r \mem[55] [3:0] $end
$upscope $end
$upscope $end
$upscope $end
$scope module SimonDatapathTest $end
$scope module dpath $end
$scope module mem $end
$var reg 4 s \mem[56] [3:0] $end
$upscope $end
$upscope $end
$upscope $end
$scope module SimonDatapathTest $end
$scope module dpath $end
$scope module mem $end
$var reg 4 t \mem[57] [3:0] $end
$upscope $end
$upscope $end
$upscope $end
$scope module SimonDatapathTest $end
$scope module dpath $end
$scope module mem $end
$var reg 4 u \mem[58] [3:0] $end
$upscope $end
$upscope $end
$upscope $end
$scope module SimonDatapathTest $end
$scope module dpath $end
$scope module mem $end
$var reg 4 v \mem[59] [3:0] $end
$upscope $end
$upscope $end
$upscope $end
$scope module SimonDatapathTest $end
$scope module dpath $end
$scope module mem $end
$var reg 4 w \mem[60] [3:0] $end
$upscope $end
$upscope $end
$upscope $end
$scope module SimonDatapathTest $end
$scope module dpath $end
$scope module mem $end
$var reg 4 x \mem[61] [3:0] $end
$upscope $end
$upscope $end
$upscope $end
$scope module SimonDatapathTest $end
$scope module dpath $end
$scope module mem $end
$var reg 4 y \mem[62] [3:0] $end
$upscope $end
$upscope $end
$upscope $end
$scope module SimonDatapathTest $end
$scope module dpath $end
$scope module mem $end
$var reg 4 z \mem[63] [3:0] $end
$upscope $end
$upscope $end
$upscope $end
$enddefinitions $end
#0
$dumpvars
bx z
bx y
bx x
bx w
bx v
bx u
bx t
bx s
bx r
bx q
bx p
bx o
bx n
bx m
bx l
bx k
bx j
bx i
bx h
bx g
bx f
bx e
bx d
bx c
bx b
bx a
bx `
bx _
bx ^
bx ]
bx \
bx [
bx Z
bx Y
bx X
bx W
bx V
bx U
bx T
bx S
bx R
bx Q
bx P
bx O
bx N
bx M
bx L
bx K
bx J
bx I
bx H
bx G
bx F
bx E
bx D
bx C
bx B
bx A
bx @
bx ?
bx >
bx =
bx <
bx ;
b0 :
b0 9
08
bx 7
b0 6
b0 5
x4
b0 3
b0 2
bx 1
b0 0
b1000000 /
0.
b0 -
0,
0+
0*
0)
0(
0'
0&
0%
0$
x#
b0 "
x!
$end
#30
1,
#50
0!
04
1%
#60
0%
#80
0,
#100
1!
b1 "
b1 5
b1 -
b1 0
b1 :
#220
b10 "
b10 5
b10 -
b10 0
b10 :
#340
0!
b101 "
b101 5
b101 -
b101 0
b101 :
#460
b1011 "
b1011 5
b1011 -
b1011 0
b1011 :
#580
1+
#600
1,
#620
1!
14
1%
#630
0%
#650
0,
#670
b100 "
b100 5
b100 -
b100 0
b100 :
#710
b10 "
b10 5
b10 -
b10 0
b10 :
#750
b1111 "
b1111 5
b1111 -
b1111 0
b1111 :
#790
b1001 "
b1001 5
b1001 -
b1001 0
b1001 :
#820
1%
#830
0%
#850
1&
#870
b0 "
b0 5
1%
#880
0%
#900
0&
#940
1.
#960
b1001 "
b1001 5
1#
b1001 ;
b1001 1
b1001 7
1%
#970
0%
#990
0.
#1010
1'
#1030
1$
b1 2
b1 9
1%
#1040
0%
#1060
0'
#1080
b110 "
b110 5
0#
b110 -
b110 0
b110 :
#1100
1.
#1120
b110 <
1%
#1130
0%
#1150
0.
#1170
1'
#1190
b10 2
b10 9
1%
#1200
0%
#1220
0'
#1240
1%
#1250
0%
#1270
1)
#1290
1%
#1300
0%
#1320
0)
#1340
1%
#1350
0%
#1370
b1001 "
b1001 5
1#
b1001 -
b1001 0
b1001 :
#1400
1(
#1440
0(
#1480
1%
#1490
0%
#1510
b111 "
b111 5
0#
b111 -
b111 0
b111 :
#1540
b1001 "
b1001 5
1(
#1580
b111 "
b111 5
0(
#1620
1*
#1640
b110 1
b110 7
b1 3
b1 6
1%
#1650
0%
#1670
0*
#1690
1%
#1700
0%
#1720
b110 "
b110 5
1#
b110 -
b110 0
b110 :
#1750
1(
#1790
0(
#1830
1%
#1840
0%
#1860
b1111 "
b1111 5
0#
b1111 -
b1111 0
b1111 :
#1890
b110 "
b110 5
1(
#1930
b1111 "
b1111 5
0(
#1970
1&
#1990
1)
#2010
0$
b1001 1
b1001 7
b0 3
b0 6
b1111 "
b1111 5
b0 2
b0 9
1%
#2020
0%
#2040
0&
#2060
0)
#2080
1*
#2100
b110 1
b110 7
b1 3
b1 6
1%
#2110
0%
#2130
0*
#2160
1'
#2180
b1 2
b1 9
1%
#2190
0%
#2210
0'
#2240
1'
#2260
1$
b10 2
b10 9
1%
#2270
0%
#2290
0'
